…
member.id %>% 
  group_by(member) %>%
  summarise(n = n(), mean = mean(predict), sd = sd(predict)) %>% 
  arrange(mean)
```

```
# A tibble: 38 x 4
   member     n  mean      sd
    <int> <int> <dbl>   <dbl>
 1     15     4 0.322 0.0145 
 2      4    11 0.323 0.00757
 3      5    11 0.323 0.00606
 4     19     7 0.324 0.00947
 5     38     3 0.329 0.0110 
 6      8     3 0.331 0.0120 
 7     13     6 0.332 0.0107 
 8     32    11 0.337 0.0157 
 9     28     9 0.341 0.0132 
10     24    14 0.344 0.0223 
# ... with 28 more rows
```
…
